out/tb_wave.vcd
$date
	Sun Oct 19 16:44:51 2025
$end
$version
	Icarus Verilog
$end
$timescale
	1s
$end
$scope module sys_array_tb $end
$var wire 16 ! w_result9 [15:0] $end
$var wire 16 " w_result8 [15:0] $end
$var wire 16 # w_result7 [15:0] $end
$var wire 16 $ w_result6 [15:0] $end
$var wire 16 % w_result5 [15:0] $end
$var wire 16 & w_result4 [15:0] $end
$var wire 16 ' w_result3 [15:0] $end
$var wire 16 ( w_result2 [15:0] $end
$var wire 16 ) w_result15 [15:0] $end
$var wire 16 * w_result14 [15:0] $end
$var wire 16 + w_result13 [15:0] $end
$var wire 16 , w_result12 [15:0] $end
$var wire 16 - w_result11 [15:0] $end
$var wire 16 . w_result10 [15:0] $end
$var wire 16 / w_result1 [15:0] $end
$var wire 16 0 w_result0 [15:0] $end
$var wire 1 1 done $end
$var parameter 32 2 DATA_BIT $end
$var reg 1 3 clk $end
$var reg 8 4 input_north0 [7:0] $end
$var reg 8 5 input_north1 [7:0] $end
$var reg 8 6 input_north2 [7:0] $end
$var reg 8 7 input_north3 [7:0] $end
$var reg 8 8 input_west0 [7:0] $end
$var reg 8 9 input_west12 [7:0] $end
$var reg 8 : input_west4 [7:0] $end
$var reg 8 ; input_west8 [7:0] $end
$var reg 1 < rst $end
$scope module uut $end
$var wire 1 3 clk $end
$var wire 8 = input_north0 [7:0] $end
$var wire 8 > input_north1 [7:0] $end
$var wire 8 ? input_north2 [7:0] $end
$var wire 8 @ input_north3 [7:0] $end
$var wire 8 A input_west0 [7:0] $end
$var wire 8 B input_west12 [7:0] $end
$var wire 8 C input_west4 [7:0] $end
$var wire 8 D input_west8 [7:0] $end
$var wire 1 < rst $end
$var wire 16 E result9 [15:0] $end
$var wire 16 F result8 [15:0] $end
$var wire 16 G result7 [15:0] $end
$var wire 16 H result6 [15:0] $end
$var wire 16 I result5 [15:0] $end
$var wire 16 J result4 [15:0] $end
$var wire 16 K result3 [15:0] $end
$var wire 16 L result2 [15:0] $end
$var wire 16 M result15 [15:0] $end
$var wire 16 N result14 [15:0] $end
$var wire 16 O result13 [15:0] $end
$var wire 16 P result12 [15:0] $end
$var wire 16 Q result11 [15:0] $end
$var wire 16 R result10 [15:0] $end
$var wire 16 S result1 [15:0] $end
$var wire 16 T result0 [15:0] $end
$var wire 8 U output_south9 [7:0] $end
$var wire 8 V output_south8 [7:0] $end
$var wire 8 W output_south7 [7:0] $end
$var wire 8 X output_south6 [7:0] $end
$var wire 8 Y output_south5 [7:0] $end
$var wire 8 Z output_south4 [7:0] $end
$var wire 8 [ output_south3 [7:0] $end
$var wire 8 \ output_south2 [7:0] $end
$var wire 8 ] output_south15 [7:0] $end
$var wire 8 ^ output_south14 [7:0] $end
$var wire 8 _ output_south13 [7:0] $end
$var wire 8 ` output_south12 [7:0] $end
$var wire 8 a output_south11 [7:0] $end
$var wire 8 b output_south10 [7:0] $end
$var wire 8 c output_south1 [7:0] $end
$var wire 8 d output_south0 [7:0] $end
$var wire 8 e output_east9 [7:0] $end
$var wire 8 f output_east8 [7:0] $end
$var wire 8 g output_east7 [7:0] $end
$var wire 8 h output_east6 [7:0] $end
$var wire 8 i output_east5 [7:0] $end
$var wire 8 j output_east4 [7:0] $end
$var wire 8 k output_east3 [7:0] $end
$var wire 8 l output_east2 [7:0] $end
$var wire 8 m output_east15 [7:0] $end
$var wire 8 n output_east14 [7:0] $end
$var wire 8 o output_east13 [7:0] $end
$var wire 8 p output_east12 [7:0] $end
$var wire 8 q output_east11 [7:0] $end
$var wire 8 r output_east10 [7:0] $end
$var wire 8 s output_east1 [7:0] $end
$var wire 8 t output_east0 [7:0] $end
$var parameter 32 u DATA_BIT $end
$var reg 4 v count [3:0] $end
$var reg 1 1 done $end
$scope module P0 $end
$var wire 1 3 clk $end
$var wire 8 w input_north [7:0] $end
$var wire 8 x input_west [7:0] $end
$var wire 1 < rst $end
$var parameter 32 y DATA_BIT $end
$var reg 8 z output_east [7:0] $end
$var reg 8 { output_south [7:0] $end
$var reg 16 | result [15:0] $end
$upscope $end
$scope module P1 $end
$var wire 1 3 clk $end
$var wire 8 } input_north [7:0] $end
$var wire 8 ~ input_west [7:0] $end
$var wire 1 < rst $end
$var parameter 32 !" DATA_BIT $end
$var reg 8 "" output_east [7:0] $end
$var reg 8 #" output_south [7:0] $end
$var reg 16 $" result [15:0] $end
$upscope $end
$scope module P10 $end
$var wire 1 3 clk $end
$var wire 1 < rst $end
$var wire 8 %" input_west [7:0] $end
$var wire 8 &" input_north [7:0] $end
$var parameter 32 '" DATA_BIT $end
$var reg 8 (" output_east [7:0] $end
$var reg 8 )" output_south [7:0] $end
$var reg 16 *" result [15:0] $end
$upscope $end
$scope module P11 $end
$var wire 1 3 clk $end
$var wire 8 +" input_west [7:0] $end
$var wire 1 < rst $end
$var wire 8 ," input_north [7:0] $end
$var parameter 32 -" DATA_BIT $end
$var reg 8 ." output_east [7:0] $end
$var reg 8 /" output_south [7:0] $end
$var reg 16 0" result [15:0] $end
$upscope $end
$scope module P12 $end
$var wire 1 3 clk $end
$var wire 8 1" input_west [7:0] $end
$var wire 1 < rst $end
$var wire 8 2" input_north [7:0] $end
$var parameter 32 3" DATA_BIT $end
$var reg 8 4" output_east [7:0] $end
$var reg 8 5" output_south [7:0] $end
$var reg 16 6" result [15:0] $end
$upscope $end
$scope module P13 $end
$var wire 1 3 clk $end
$var wire 8 7" input_west [7:0] $end
$var wire 1 < rst $end
$var wire 8 8" input_north [7:0] $end
$var parameter 32 9" DATA_BIT $end
$var reg 8 :" output_east [7:0] $end
$var reg 8 ;" output_south [7:0] $end
$var reg 16 <" result [15:0] $end
$upscope $end
$scope module P14 $end
$var wire 1 3 clk $end
$var wire 8 =" input_north [7:0] $end
$var wire 8 >" input_west [7:0] $end
$var wire 1 < rst $end
$var parameter 32 ?" DATA_BIT $end
$var reg 8 @" output_east [7:0] $end
$var reg 8 A" output_south [7:0] $end
$var reg 16 B" result [15:0] $end
$upscope $end
$scope module P15 $end
$var wire 1 3 clk $end
$var wire 8 C" input_north [7:0] $end
$var wire 8 D" input_west [7:0] $end
$var wire 1 < rst $end
$var parameter 32 E" DATA_BIT $end
$var reg 8 F" output_east [7:0] $end
$var reg 8 G" output_south [7:0] $end
$var reg 16 H" result [15:0] $end
$upscope $end
$scope module P2 $end
$var wire 1 3 clk $end
$var wire 8 I" input_north [7:0] $end
$var wire 8 J" input_west [7:0] $end
$var wire 1 < rst $end
$var parameter 32 K" DATA_BIT $end
$var reg 8 L" output_east [7:0] $end
$var reg 8 M" output_south [7:0] $end
$var reg 16 N" result [15:0] $end
$upscope $end
$scope module P3 $end
$var wire 1 3 clk $end
$var wire 8 O" input_north [7:0] $end
$var wire 8 P" input_west [7:0] $end
$var wire 1 < rst $end
$var parameter 32 Q" DATA_BIT $end
$var reg 8 R" output_east [7:0] $end
$var reg 8 S" output_south [7:0] $end
$var reg 16 T" result [15:0] $end
$upscope $end
$scope module P4 $end
$var wire 1 3 clk $end
$var wire 8 U" input_north [7:0] $end
$var wire 8 V" input_west [7:0] $end
$var wire 1 < rst $end
$var parameter 32 W" DATA_BIT $end
$var reg 8 X" output_east [7:0] $end
$var reg 8 Y" output_south [7:0] $end
$var reg 16 Z" result [15:0] $end
$upscope $end
$scope module P5 $end
$var wire 1 3 clk $end
$var wire 8 [" input_north [7:0] $end
$var wire 8 \" input_west [7:0] $end
$var wire 1 < rst $end
$var parameter 32 ]" DATA_BIT $end
$var reg 8 ^" output_east [7:0] $end
$var reg 8 _" output_south [7:0] $end
$var reg 16 `" result [15:0] $end
$upscope $end
$scope module P6 $end
$var wire 1 3 clk $end
$var wire 8 a" input_north [7:0] $end
$var wire 8 b" input_west [7:0] $end
$var wire 1 < rst $end
$var parameter 32 c" DATA_BIT $end
$var reg 8 d" output_east [7:0] $end
$var reg 8 e" output_south [7:0] $end
$var reg 16 f" result [15:0] $end
$upscope $end
$scope module P7 $end
$var wire 1 3 clk $end
$var wire 8 g" input_north [7:0] $end
$var wire 8 h" input_west [7:0] $end
$var wire 1 < rst $end
$var parameter 32 i" DATA_BIT $end
$var reg 8 j" output_east [7:0] $end
$var reg 8 k" output_south [7:0] $end
$var reg 16 l" result [15:0] $end
$upscope $end
$scope module P8 $end
$var wire 1 3 clk $end
$var wire 8 m" input_north [7:0] $end
$var wire 8 n" input_west [7:0] $end
$var wire 1 < rst $end
$var parameter 32 o" DATA_BIT $end
$var reg 8 p" output_east [7:0] $end
$var reg 8 q" output_south [7:0] $end
$var reg 16 r" result [15:0] $end
$upscope $end
$scope module P9 $end
$var wire 1 3 clk $end
$var wire 8 s" input_north [7:0] $end
$var wire 8 t" input_west [7:0] $end
$var wire 1 < rst $end
$var parameter 32 u" DATA_BIT $end
$var reg 8 v" output_east [7:0] $end
$var reg 8 w" output_south [7:0] $end
$var reg 16 x" result [15:0] $end
$upscope $end
$upscope $end
$upscope $end
$enddefinitions $end
$comment Show the parameter values. $end
$dumpall
b1000 u"
b1000 o"
b1000 i"
b1000 c"
b1000 ]"
b1000 W"
b1000 Q"
b1000 K"
b1000 E"
b1000 ?"
b1000 9"
b1000 3"
b1000 -"
b1000 '"
b1000 !"
b1000 y
b1000 u
b1000 2
$end
#0
$dumpvars
b0 x"
b0 w"
b0 v"
b0 t"
b0 s"
b0 r"
b0 q"
b0 p"
b0 n"
b0 m"
b0 l"
b0 k"
b0 j"
b0 h"
b0 g"
b0 f"
b0 e"
b0 d"
b0 b"
b0 a"
b0 `"
b0 _"
b0 ^"
b0 \"
b0 ["
b0 Z"
b0 Y"
b0 X"
b0 V"
b0 U"
b0 T"
b0 S"
b0 R"
b0 P"
b0 O"
b0 N"
b0 M"
b0 L"
b0 J"
b0 I"
b0 H"
b0 G"
b0 F"
b0 D"
b0 C"
b0 B"
b0 A"
b0 @"
b0 >"
b0 ="
b0 <"
b0 ;"
b0 :"
b0 8"
b0 7"
b0 6"
b0 5"
b0 4"
b0 2"
b0 1"
b0 0"
b0 /"
b0 ."
b0 ,"
b0 +"
b0 *"
b0 )"
b0 ("
b0 &"
b0 %"
b0 $"
b0 #"
b0 ""
b0 ~
b0 }
b0 |
b0 {
b0 z
b0 x
b0 w
b0 v
b0 t
b0 s
b0 r
b0 q
b0 p
b0 o
b0 n
b0 m
b0 l
b0 k
b0 j
b0 i
b0 h
b0 g
b0 f
b0 e
b0 d
b0 c
b0 b
b0 a
b0 `
b0 _
b0 ^
b0 ]
b0 \
b0 [
b0 Z
b0 Y
b0 X
b0 W
b0 V
b0 U
b0 T
b0 S
b0 R
b0 Q
b0 P
b0 O
b0 N
b0 M
b0 L
b0 K
b0 J
b0 I
b0 H
b0 G
b0 F
b0 E
b0 D
b0 C
b0 B
b0 A
b0 @
b0 ?
b0 >
b0 =
1<
b0 ;
b0 :
b0 9
b0 8
b0 7
b0 6
b0 5
b0 4
03
01
b0 0
b0 /
b0 .
b0 -
b0 ,
b0 +
b0 *
b0 )
b0 (
b0 '
b0 &
b0 %
b0 $
b0 #
b0 "
b0 !
$end
#3
0<
b1100 4
b1100 =
b1100 w
b11 8
b11 A
b11 x
#5
b1 v
b1100 d
b1100 {
b1100 U"
b11 t
b11 z
b11 ~
b100100 0
b100100 T
b100100 |
13
#10
03
#13
b1101 5
b1101 >
b1101 }
b111 :
b111 C
b111 V"
b1000 4
b1000 =
b1000 w
b10 8
b10 A
b10 x
#15
b1000 d
b1000 {
b1000 U"
b10 t
b10 z
b10 ~
b110100 0
b110100 T
b110100 |
b1101 c
b1101 #"
b1101 ["
b11 s
b11 ""
b11 J"
b100111 /
b100111 S
b100111 $"
b1100 Z
b1100 Y"
b1100 m"
b111 j
b111 X"
b111 \"
b1010100 &
b1010100 J
b1010100 Z"
b10 v
13
#20
03
#23
b1110 6
b1110 ?
b1110 I"
b1011 ;
b1011 D
b1011 n"
b1001 5
b1001 >
b1001 }
b110 :
b110 C
b110 V"
b100 4
b100 =
b100 w
b1 8
b1 A
b1 x
#25
b11 v
b1101 Y
b1101 _"
b1101 s"
b111 i
b111 ^"
b111 b"
b1011011 %
b1011011 I
b1011011 `"
b1100 V
b1100 2"
b1100 q"
b1011 f
b1011 p"
b1011 t"
b10000100 "
b10000100 F
b10000100 r"
b1000 Z
b1000 Y"
b1000 m"
b110 j
b110 X"
b110 \"
b10000100 &
b10000100 J
b10000100 Z"
b1110 \
b1110 M"
b1110 a"
b11 l
b11 L"
b11 P"
b101010 (
b101010 L
b101010 N"
b1001 c
b1001 #"
b1001 ["
b10 s
b10 ""
b10 J"
b111001 /
b111001 S
b111001 $"
b100 d
b100 {
b100 U"
b1 t
b1 z
b1 ~
b111000 0
b111000 T
b111000 |
13
#30
03
#33
b1111 7
b1111 @
b1111 O"
b1111 9
b1111 B
b1111 1"
b1010 6
b1010 ?
b1010 I"
b1010 ;
b1010 D
b1010 n"
b101 5
b101 >
b101 }
b101 :
b101 C
b101 V"
b0 4
b0 =
b0 w
b0 8
b0 A
b0 x
#35
b0 d
b0 {
b0 U"
b0 t
b0 z
b0 ~
b101 c
b101 #"
b101 ["
b1 s
b1 ""
b1 J"
b111110 /
b111110 S
b111110 $"
b1010 \
b1010 M"
b1010 a"
b10 l
b10 L"
b10 P"
b111110 (
b111110 L
b111110 N"
b1111 [
b1111 S"
b1111 g"
b11 k
b11 R"
b101101 '
b101101 K
b101101 T"
b100 Z
b100 Y"
b100 m"
b101 j
b101 X"
b101 \"
b10011000 &
b10011000 J
b10011000 Z"
b1000 V
b1000 2"
b1000 q"
b1010 f
b1010 p"
b1010 t"
b11010100 "
b11010100 F
b11010100 r"
b1100 `
b1100 5"
b1111 p
b1111 4"
b1111 7"
b10110100 ,
b10110100 P
b10110100 6"
b1001 Y
b1001 _"
b1001 s"
b110 i
b110 ^"
b110 b"
b10010001 %
b10010001 I
b10010001 `"
b1110 X
b1110 &"
b1110 e"
b111 h
b111 d"
b111 h"
b1100010 $
b1100010 H
b1100010 f"
b1101 U
b1101 8"
b1101 w"
b1011 e
b1011 %"
b1011 v"
b10001111 !
b10001111 E
b10001111 x"
b100 v
13
#40
03
#43
b1011 7
b1011 @
b1011 O"
b1110 9
b1110 B
b1110 1"
b110 6
b110 ?
b110 I"
b1001 ;
b1001 D
b1001 n"
b1 5
b1 >
b1 }
b100 :
b100 C
b100 V"
#45
b101 v
b1101 _
b1101 ;"
b1111 o
b1111 :"
b1111 >"
b11000011 +
b11000011 O
b11000011 <"
b1110 b
b1110 )"
b1110 ="
b1011 r
b1011 ("
b1011 +"
b10011010 .
b10011010 R
b10011010 *"
b1001 U
b1001 8"
b1001 w"
b1010 e
b1010 %"
b1010 v"
b11101001 !
b11101001 E
b11101001 x"
b1111 W
b1111 ,"
b1111 k"
b111 g
b111 j"
b1101001 #
b1101001 G
b1101001 l"
b1010 X
b1010 &"
b1010 e"
b110 h
b110 d"
b110 h"
b10011110 $
b10011110 H
b10011110 f"
b101 Y
b101 _"
b101 s"
b101 i
b101 ^"
b101 b"
b10101010 %
b10101010 I
b10101010 `"
b1000 `
b1000 5"
b1110 p
b1110 4"
b1110 7"
b100100100 ,
b100100100 P
b100100100 6"
b100 V
b100 2"
b100 q"
b1001 f
b1001 p"
b1001 t"
b11111000 "
b11111000 F
b11111000 r"
b0 Z
b0 Y"
b0 m"
b100 j
b100 X"
b100 \"
b1011 [
b1011 S"
b1011 g"
b10 k
b10 R"
b1000011 '
b1000011 K
b1000011 T"
b110 \
b110 M"
b110 a"
b1 l
b1 L"
b1 P"
b1000100 (
b1000100 L
b1000100 N"
b1 c
b1 #"
b1 ["
b0 s
b0 ""
b0 J"
13
#50
03
#53
b111 7
b111 @
b111 O"
b1101 9
b1101 B
b1101 1"
b10 6
b10 ?
b10 I"
b1000 ;
b1000 D
b1000 n"
b0 5
b0 >
b0 }
b0 :
b0 C
b0 V"
#55
b0 c
b0 #"
b0 ["
b10 \
b10 M"
b10 a"
b0 l
b0 L"
b0 P"
b111 [
b111 S"
b111 g"
b1 k
b1 R"
b1001010 '
b1001010 K
b1001010 T"
b0 j
b0 X"
b0 \"
b0 V
b0 2"
b0 q"
b1000 f
b1000 p"
b1000 t"
b100 `
b100 5"
b1101 p
b1101 4"
b1101 7"
b101011000 ,
b101011000 P
b101011000 6"
b1 Y
b1 _"
b1 s"
b100 i
b100 ^"
b100 b"
b10101110 %
b10101110 I
b10101110 `"
b110 X
b110 &"
b110 e"
b101 h
b101 d"
b101 h"
b10111100 $
b10111100 H
b10111100 f"
b1011 W
b1011 ,"
b1011 k"
b110 g
b110 j"
b10101011 #
b10101011 G
b10101011 l"
b101 U
b101 8"
b101 w"
b1001 e
b1001 %"
b1001 v"
b100010110 !
b100010110 E
b100010110 x"
b1010 b
b1010 )"
b1010 ="
b1010 r
b1010 ("
b1010 +"
b11111110 .
b11111110 R
b11111110 *"
b1111 a
b1111 /"
b1111 C"
b1011 q
b1011 ."
b10100101 -
b10100101 Q
b10100101 0"
b1001 _
b1001 ;"
b1110 o
b1110 :"
b1110 >"
b101000001 +
b101000001 O
b101000001 <"
b1110 ^
b1110 A"
b1111 n
b1111 @"
b1111 D"
b11010010 *
b11010010 N
b11010010 B"
b110 v
13
#60
03
#63
b11 7
b11 @
b11 O"
b1100 9
b1100 B
b1100 1"
b0 6
b0 ?
b0 I"
b0 ;
b0 D
b0 n"
#65
b111 v
b1111 ]
b1111 G"
b1111 m
b1111 F"
b11100001 )
b11100001 M
b11100001 H"
b1010 ^
b1010 A"
b1110 n
b1110 @"
b1110 D"
b101011110 *
b101011110 N
b101011110 B"
b101 _
b101 ;"
b1101 o
b1101 :"
b1101 >"
b110000010 +
b110000010 O
b110000010 <"
b1011 a
b1011 /"
b1011 C"
b1010 q
b1010 ."
b100010011 -
b100010011 Q
b100010011 0"
b110 b
b110 )"
b110 ="
b1001 r
b1001 ("
b1001 +"
b100110100 .
b100110100 R
b100110100 *"
b1 U
b1 8"
b1 w"
b1000 e
b1000 %"
b1000 v"
b100011110 !
b100011110 E
b100011110 x"
b111 W
b111 ,"
b111 k"
b101 g
b101 j"
b11001110 #
b11001110 G
b11001110 l"
b10 X
b10 &"
b10 e"
b100 h
b100 d"
b100 h"
b11000100 $
b11000100 H
b11000100 f"
b0 Y
b0 _"
b0 s"
b0 i
b0 ^"
b0 b"
b0 `
b0 5"
b1100 p
b1100 4"
b1100 7"
b0 f
b0 p"
b0 t"
b11 [
b11 S"
b11 g"
b0 k
b0 R"
b0 \
b0 M"
b0 a"
13
#70
03
#73
b0 7
b0 @
b0 O"
b0 9
b0 B
b0 1"
#75
b0 [
b0 S"
b0 g"
b0 p
b0 4"
b0 7"
b0 X
b0 &"
b0 e"
b0 h
b0 d"
b0 h"
b11 W
b11 ,"
b11 k"
b100 g
b100 j"
b11011010 #
b11011010 G
b11011010 l"
b0 U
b0 8"
b0 w"
b0 e
b0 %"
b0 v"
b10 b
b10 )"
b10 ="
b1000 r
b1000 ("
b1000 +"
b101000100 .
b101000100 R
b101000100 *"
b111 a
b111 /"
b111 C"
b1001 q
b1001 ."
b101010010 -
b101010010 Q
b101010010 0"
b1 _
b1 ;"
b1100 o
b1100 :"
b1100 >"
b110001110 +
b110001110 O
b110001110 <"
b110 ^
b110 A"
b1101 n
b1101 @"
b1101 D"
b110101100 *
b110101100 N
b110101100 B"
b1011 ]
b1011 G"
b1110 m
b1110 F"
b101111011 )
b101111011 M
b101111011 H"
b1000 v
13
#80
03
#85
b1001 v
b111 ]
b111 G"
b1101 m
b1101 F"
b111010110 )
b111010110 M
b111010110 H"
b10 ^
b10 A"
b1100 n
b1100 @"
b1100 D"
b111000100 *
b111000100 N
b111000100 B"
b0 _
b0 ;"
b0 o
b0 :"
b0 >"
b11 a
b11 /"
b11 C"
b1000 q
b1000 ."
b101101010 -
b101101010 Q
b101101010 0"
b0 b
b0 )"
b0 ="
b0 r
b0 ("
b0 +"
b0 W
b0 ,"
b0 k"
b0 g
b0 j"
13
#90
03
#95
b0 a
b0 /"
b0 C"
b0 q
b0 ."
b0 ^
b0 A"
b0 n
b0 @"
b0 D"
b11 ]
b11 G"
b1100 m
b1100 F"
b111111010 )
b111111010 M
b111111010 H"
b0 v
11
13
#100
03
#105
b1 v
01
b0 ]
b0 G"
b0 m
b0 F"
13
#110
03
#115
b10 v
13
#120
03
#125
b11 v
13
#130
03
#135
b100 v
13
#140
03
#145
b101 v
13
#150
03
#155
b110 v
13
#160
03
#165
b111 v
13
#170
03
#175
b1000 v
13
#180
03
#185
b1001 v
13
#190
03
#195
b0 v
11
13
